{
  "file_key": "hr/wfm/bi/business_unit_parameters/",
  "vault_type": "M",
  "job_name": "Create_Ext_Vault_v3",
  "ext_schema": "vault",
  "partitioncol": "segment",
  "paritionby": "WEEK",
  "delimiter": "~",
  "js_pkey": "business_unit_id",
  "js_vkey": "business_unit_id",
  "js_chk_ts": "last_modified_timestamp",
  "js_chk_ymd": "assumed_tran_date,date_key",
  "js_chk_y_m_d": "",
  "js_chk_vchr": "",
  "js_chk_int": "run_id",
  "js_chk_dec": "",
  "js_chk_nn": "business_unit_id",
  "js_ignore": ""
}
